################################################################################
#####`..                 `-######.'   . '    '. '           ##/  .    .    . `##
###.    `.                 `####'     .    ' '  '         ,#.'. _.    _    .  `#
##     ' `.                 `##'      .  '  .'  '         #/. .' .   ( )   .  .#
##   `    :                  ##      .    ' .'  '        /# ._.  .  """""  . `.#
#      .   `.                ##      .  '  . '  '        ##_. .  .    .    .  .#
#  -'.    ' `.               ##     .     .  '  '        ## . .  .'  `.  """  .#
# '   '.     :               ##     . '  .   """"        ##"""""""    .    .  .#
##############               `#    .    .                \#_. . _.    """"".  .#
#############'.               #    . '.                   # . .' .    .    .  .#
###########'   `-.                .  .         ^          # ._.  . """"    . `.#
######'      '    `-.            , '.         ^#         /# . .  .    .    .  .#
####'`-..       .    `.         . .           ##         ##_. . """   .   """""#
###'     `'`-..     `. :       /_'           ###         ## ._.  .    .    .  .#
###   .'       `'`'-..  `.    /___\          `##         ## . .  .  """    .  .#
###':,        `       `'`.`. /_____\          ##         \#_. .  .    .    .  .#
##`.. `.,'.        `.     `'`..!_!..\         ##          # ._.  ."""".    .  .#
# ..'..'   `..'.       ',            `-.      ##^        /#\. .  .    .   """ .#
#  :  ':.   .:  `.     '        ^^^     '.'-.^###           . .  .    .    .  .#
#  ::   :..'  `.  :       ^   ^^###^        ^####^          . .'`.    .  """"""#
#.'  ':.  `,.   ;.'.    ^^#^^^#####^^       ######^^^    \#/. .  .    .    .  .#
#..   ' '..' `.'    `. ^#############^^^  ^^#########^^   # . .  .  """    . `.#
#^^^^^^^^^^^^^^^^^^^^^^#################^^#############^^^# .'.  .    .    .  .#
################################################################################
