11111111111111111111111111111111111111111111111111111111111111111111111111111111
11111111111111111777777777777111111111111111111111111111111111111111111111111111
11111177777771111111111111177111111111111111111111111111111111111111111111111111
11111772171277111111111111177777771117777777777777111111111111111111111111111111
11117772777277711111111111111111171117111111111111111111111111111111111111111111
17777777737777777771111117771177771117777777777777777777777777777777777777111111
11111111131111111171171177771111111177111171117777711111111111111111111111111111
11111111111111111171111177777777777777111171117771111111111111111111111111177171
13777777777777777777777777771111111111111171117711111777777777777777777777777771
13711111111111111111111111111111111111111171117711111777771111111111117777777771
13711111111111111111111111111111111111111111117711111777111111111111111117777771
13777111111111111111111111111117777777777777777711111777111111111111111111111771
13711111111111111111111111111111111111111111111111111711111111111111111111111171
13711111111111111111111111177777777111177777777777777711117711117711111111111111
13711111111111111111111117777777777777171111111111111111177711117777111111111111
13711111111111111111177777777777711177771111111111111117777711111777771111111111
13711111111111177111177777777777771111111111111111111177711111111117777111111111
13711111111111111111177777777777777771111111111111111777111111111111777711111111
13711111111111111111177777777777777777777777777777777771111111111111177711111111
13711111111111111111777117777777777777777777777777777777777777777777777711111111
13777777777777777777771111111111111111111111111111111111111111111111111111111171
13777777777777777777711111111111111111111111111111111111111111111111111111111771
13111111111111111111111111111111111111111111111111111111111111111111111111117771
11111111111111111111111111111111111111111111111111111111111111111111111111111111
