################################################################################
#                ############                                                  #
#     /#####\              ##                                                  #
#    /#v _ v#\             #######   #############                             #
#   /##|( )|##\                  #   #                                         #
#########"########\      ###  ####   #####################################     #
#        "        #  #  ##*#        ##    #   #####                            #
#                 #     ##############    #   ###                          ^^ ^#
#"##########################              #   ##     ###########################
#"#                                       #   ##     #####            ##########
#"#                                           ##     ###                 #######
#"###                          #################     ###                     ###
#"#                                                  #                        ##
#"#                        ########    ###############    /#    #\             #
#"#                      ###HERE###### #                 /##    ###\           #
#"#                  ############   \###               /###/     \###\         #
#"#            ##    ############\                    /#/          \##\        #
#"#                  ##YS###########\                /#/            \##\       #
#"#                  #######WAS#######################/              \##       #
#"#                 ##/  \##############################################       #
#"#^^^^^^^^^^^^^^^^^#/                                                        /#
#"###################                                                        /##
#"                                                                          /###
################################################################################
