11111111111111111111111111111111111111111111111111111111111111111111111111111111
11111111111111111111666666666666666666666666666666666666666666666666666666666661
16111111111111111117666666666666666666666666666666666666666666666666666666666661
16611111111111111116666666666666666666666666666666666666666666666666666666666661
16666666666666666666666666666666666666666666666666666666666666666666666666666661
16666666766666666666666666666666666666666666666666666666666666666666666666666661
16666666666766666666666666666666666666666666666666666666666666666666666666666661
16666676666666666666666666666666666666666666666666666666666666666666666666666661
16666666666666666666666666666666666666666666666666666666666666666666666666666661
16666666666666666666666666666666666666666666666666666666666666666666666666666661
16666666666666666666666666666666666666666666666666666666666666666666666666666661
16666666666766666666666666666666666666666666666666666666666666666666666666666661
16666666666666666666666666666666666666666666666666666666666666666666666666666661
16666666666666666666666666666666666666666666666666666666666666666666666666666661
16666666666666666666666666666666666666666666666666666666666666666666666666666661
16666666666666666666666666666666666666666666666666666666666666666666666666666661
16666676666666666666666666666666666666666666666666666666666666666666666666666661
16666666676666666666666666666666666666666666666666666666666666666666666666666661
16666666666666666666666666666666666666666666666667776666666666666666666666666661
16666666666666666666666666666666666666666666666666666666666666666666666666666661
16666666666666666666666666666666666666666666666666666666666666666666666666666661
16666666666666666666666666666666666666666666666666666666666666666666666666666661
16666666666666666666666666666666666664444444666666666666666666666666666666666661
11111111111111111111111111111111111111111111111111111111111111111111111111111111
