title 6: Pit of Bats
size 80 24
start 1 1
goal 19 2 misdirection
spike 6 1
spike 7 1
spike 8 1
spike 9 1
muncher 15 19
muncher 30 18 
button 12 9 36 19 
button 12 9 68 14 
message 34 21 0 Samsai Found your way in here?\ \Well done. 
bat 48 14
bat 35 7
bat 54 7
teleport 41 8 16 3
end
